…
``` r
result <- getFileReference(folder)
```

We can get a summary of the results using
[`getResultsSummary()`](https://ohdsi.github.io/CohortMethod/reference/getResultsSummary.md):

``` r
resultsSum <- getResultsSummary(folder)
resultsSum
```

    ## # A tibble: 216 × 27
    ##    analysisId targetId comparatorId nestingCohortId outcomeId targetSubjects
    ##         <int>    <int>        <int>           <int>     <int>          <int>
    ##  1          1        1            2               3        77          86201
    ##  2          1        1            2               3     29735          88336
    ##  3          1        1            2               3    140673          83134
    ##  4          1        1            2               3    197494          89155
    ##  5          1        1            2               3    198185          89318
    ##  6          1        1            2               3    198199          88806
    ##  7          1        1            2               3    200528          88682
    ##  8          1        1            2               3    257315          88328
    ##  9          1        1            2               3    314658          79863
    ## 10          1        1            2               3    317376          89190
    ## # ℹ 206 more rows
    ## # ℹ 21 more variables: comparatorSubjects <int>, targetDays <dbl>,
    ## #   comparatorDays <dbl>, targetOutcomes <dbl>, comparatorOutcomes <dbl>,
    ## #   rr <dbl>, ci95Lb <dbl>, ci95Ub <dbl>, p <dbl>, oneSidedP <dbl>,
    ## #   logRr <dbl>, seLogRr <dbl>, llr <dbl>, calibratedRr <dbl>,
    ## #   calibratedCi95Lb <dbl>, calibratedCi95Ub <dbl>, calibratedP <dbl>,
    ## #   calibratedOneSidedP <dbl>, calibratedLogRr <dbl>, …
…
Note that we are moving to balance diagnostic based on significance
testing to avoid failing the balance diagnostics on smaller data sets.
Currently the default is still to use the traditional balance approach.

We can retrieve the diagnostics:

``` r
diagnostics <- getDiagnosticsSummary(folder)
diagnostics
```

    ## # A tibble: 216 × 21
    ##    analysisId targetId comparatorId nestingCohortId outcomeId maxSdm
    ##         <int>    <int>        <int>           <int>     <int>  <dbl>
    ##  1          1        1            2               3        77     NA
    ##  2          1        1            2               3     29735     NA
    ##  3          1        1            2               3    140673     NA
    ##  4          1        1            2               3    197494     NA
    ##  5          1        1            2               3    198185     NA
    ##  6          1        1            2               3    198199     NA
    ##  7          1        1            2               3    200528     NA
    ##  8          1        1            2               3    257315     NA
    ##  9          1        1            2               3    314658     NA
    ## 10          1        1            2               3    317376     NA
    ## # ℹ 206 more rows
    ## # ℹ 15 more variables: sdmFamilyWiseMinP <dbl>, balanceDiagnostic <chr>,
    ## #   sharedMaxSdm <dbl>, sharedSdmFamilyWiseMinP <dbl>,
    ## #   sharedBalanceDiagnostic <chr>, equipoise <dbl>, equipoiseDiagnostic <chr>,
    ## #   generalizabilityMaxSdm <dbl>, generalizabilityDiagnostic <chr>, mdrr <dbl>,
    ## #   mdrrDiagnostic <chr>, ease <dbl>, easeDiagnostic <chr>,
    ## #   unblindForEvidenceSynthesis <lgl>, unblind <lgl>
…
Any person counts in the results that are smaller than the
`minCellCount` argument will be blinded, by replacing the count with the
negative `minCellCount`. For example, if the number of people with the
outcome is 3, and `minCellCount = 5`, the count will be reported to be
-5, which in the Shiny app will be displayed as ‘\<5’.

Information on the data model used to generate the CSV files can be
retrieved using
[`getResultsDataModelSpecifications()`](https://ohdsi.github.io/CohortMethod/reference/getResultsDataModelSpecifications.md):

``` r
getResultsDataModelSpecifications()
```

    ## # A tibble: 183 × 8
    ##    tableName   columnName dataType isRequired primaryKey minCellCount deprecated
    ##    <chr>       <chr>      <chr>    <chr>      <chr>      <chr>        <chr>     
    ##  1 cm_attriti… sequence_… int      Yes        Yes        No           No        
    ##  2 cm_attriti… descripti… varchar  Yes        No         No           No        
    ##  3 cm_attriti… subjects   int      Yes        No         Yes          No        
    ##  4 cm_attriti… exposure_… bigint   Yes        Yes        No           No        
    ##  5 cm_attriti… target_co… bigint   Yes        Yes        No           No        
    ##  6 cm_attriti… analysis_… int      Yes        Yes        No           No        
    ##  7 cm_attriti… outcome_id bigint   Yes        Yes        No           No        
    ##  8 cm_attriti… database_… varchar  Yes        Yes        No           No        
    ##  9 cm_follow_… target_co… bigint   Yes        Yes        No           No        
    ## 10 cm_follow_… outcome_id bigint   Yes        Yes        No           No        
    ## # ℹ 173 more rows
    ## # ℹ 1 more variable: description <chr>
…
