Running multiple analyses at once using the CohortMethod package • CohortMethod
…
Any person counts in the results that are smaller than the
minCellCount argument will be blinded, by replacing the
count with the negative minCellCount. For example, if the
number of people with the outcome is 3, and
minCellCount = 5, the count will be reported to be -5,
which in the Shiny app will be displayed as ‘<5’.

Information on the data model used to generate the CSV files can be
retrieved using getResultsDataModel():

getResultsDataModel()

## # A tibble: 171 x 7
##    table_name       column_name data_type is_required primary_key min_cell_count
##    <chr>            <chr>       <chr>     <chr>       <chr>       <chr>         
##  1 cm_attrition     sequence_n~ int       Yes         Yes         No            
##  2 cm_attrition     description varchar   Yes         No          No            
##  3 cm_attrition     subjects    int       Yes         No          Yes           
##  4 cm_attrition     exposure_id int       Yes         Yes         No            
##  5 cm_attrition     target_id   int       Yes         Yes         No            
##  6 cm_attrition     comparator~ int       Yes         Yes         No            
##  7 cm_attrition     analysis_id int       Yes         Yes         No            
##  8 cm_attrition     outcome_id  int       Yes         Yes         No            
##  9 cm_attrition     database_id varchar   Yes         Yes         No            
## 10 cm_follow_up_di~ target_id   int       Yes         Yes         No            
## # i 161 more rows
## # i 1 more variable: description <chr>
…
